011?0100000000000110011??0000000000001001010000?10001000011010001100?0?0001000?0
011001001000000001100110000000000001111111?00001100010100111100?1100000000100110
01110100100000100110011?0001100010?1011111100001110010001111101011000001?1?00111
0110010010000000001001110?000011000111111110?01110001100?1111010?1?1000100100110
0110011010010000011001110?000000000101?111100001101?100011111010110000000010?110
11110100101000100111011101?11000100101?11100000111001010111110101100000100100111
01100110100100?00110011100000001000101111110?00110101000111110111100000000100110
01000100000000000110010000?000000000010010100000100000000100100011?0?00000100010
011??10010000?00011001?100000000000101111110000110001000111110100100010000100010
011001001000000001100110?0000000?00111111110000110001000011110101100000000100110
01100101110110000?101?110100000000?1011111100001?0001000111110101110010010100110
011001001000010001100111000000110001011111001011100111001?1110101101000001100110
01100100100000000110001000?00?00000001001010000010001?00011010001100000000100010
0110010000010000?1100?110?100?00001101111110000110101001101110101100001000100110
000010000000000000100000000000000000010?0000000000000000010100001100000000100000
01100100100000000110011100000000000101?111100001101010001111101??100000000100110
0110010010000000011001110000100?00010111111000011000100001111?101100000000100110
0100010000000000011001?00000000000000100?010000010000000011010001100000000100??0
11110100101100100110011100011000?0010111111000011100100011111010110000000010?111
0110?10011010000011101110000000000010111111000011??01000111010101100000000100110
011001011??1000?0?10?11101000000000101111110000110101000111110101100000000100010