0110010   0 00000 1 0 100 00 00 0000 10010 00000100010 00 1 1000 100000 0 100 10
0110010   0 00000 1 0 100 00 00 0001 11111 00001100010 00 1 1000 100000 0 100 10
0111010   0 00100 1 0 110 01 00 1001 11111 00001110010 01 1 1010 100000 0 100 11
0110010   0 00000 1 0 110 00 01 0001 11111 00011100011 01 1 1010 101000 0 100 10
0110011   0 00000 1 0 110 00 00 0001 11111 00001101010 01 1 1010 100000 0 100 10
1111010   1 00100 1 0 110 01 00 1001 11111 00001110010 01 1 1010 100000 0 100 11
0110011   0 00000 1 0 110 00 00 0001 11111 00001101010 01 1 1011 100000 0 100 10
0100010   0 00000 1 0 000 00 00 0000 10010 00000100000 00 0 1000 100000 0 100 10
0110010   0 00000 1 0 110 00 00 0001 11111 00001100010 01 1 1010 100010 0 100 10
0110010   0 00000 1 0 100 00 00 0001 11111 00001100010 00 1 1010 100000 0 100 10
0110010   0 10000 1 1 110 00 00 0001 11111 00001100010 01 1 1010 110010 1 100 10
0110010   0 01000 1 0 110 00 01 0001 11111 01011100111 01 1 1010 101000 0 100 10
0110010   0 00000 1 0 100 00 00 0000 10010 00000100010 00 1 1000 100000 0 100 10
0110010   0 00000 1 0 110 10 00 0011 11111 00001101010 11 1 1010 100001 0 100 10
0000100   0 00000 1 0 000 00 00 0000 10000 00000000000 00 0 0000 100000 0 100 00
0110010   0 00000 1 0 110 00 00 0001 11111 00001101010 01 1 1010 100000 0 100 10
0110010   0 00000 1 0 110 00 00 0001 11111 00001100010 00 1 1010 100000 0 100 10
0100010   0 00000 1 0 000 00 00 0000 10010 00000100000 00 1 1000 100000 0 100 10
1111010   1 00100 1 0 110 01 00 1001 11111 00001110010 01 1 1010 100000 0 100 11
0110010   0 00000 1 0 110 00 00 0001 11111 00001100010 01 1 1010 100000 0 100 10
0110010   0 00000 1 0 110 00 00 0001 11111 00001101010 01 1 1010 100000 0 100 10